EESchema Schematic File Version 4
EELAYER 26 0
EELAYER END
$Descr A4 11693 8268
encoding utf-8
Sheet 1 1
Title ""
Date ""
Rev ""
Comp ""
Comment1 ""
Comment2 ""
Comment3 ""
Comment4 ""
$EndDescr
$Comp
L Connector:Conn_01x01_Female J1
U 1 1 5B7E9AC9
P 1450 2250
F 0 "J1" H 1344 2025 50  0000 C CNN
F 1 "IN1" H 1344 2116 50  0000 C CNN
F 2 "" H 1450 2250 50  0001 C CNN
F 3 "~" H 1450 2250 50  0001 C CNN
	1    1450 2250
	-1   0    0    1   
$EndComp
$Comp
L Device:R R1
U 1 1 5B7E9BAB
P 1950 2250
F 0 "R1" V 1743 2250 50  0000 C CNN
F 1 "1M" V 1834 2250 50  0000 C CNN
F 2 "" V 1880 2250 50  0001 C CNN
F 3 "~" H 1950 2250 50  0001 C CNN
	1    1950 2250
	0    1    1    0   
$EndComp
$Comp
L Device:C C1
U 1 1 5B7E9C0D
P 1950 1850
F 0 "C1" V 1698 1850 50  0000 C CNN
F 1 "10p" V 1789 1850 50  0000 C CNN
F 2 "" H 1988 1700 50  0001 C CNN
F 3 "~" H 1950 1850 50  0001 C CNN
	1    1950 1850
	0    1    1    0   
$EndComp
$Comp
L Device:R R3
U 1 1 5B7E9CD0
P 2350 2250
F 0 "R3" V 2143 2250 50  0000 C CNN
F 1 "1M" V 2234 2250 50  0000 C CNN
F 2 "" V 2280 2250 50  0001 C CNN
F 3 "~" H 2350 2250 50  0001 C CNN
	1    2350 2250
	0    1    1    0   
$EndComp
$Comp
L Device:C C3
U 1 1 5B7E9CD7
P 2350 1850
F 0 "C3" V 2098 1850 50  0000 C CNN
F 1 "10p" V 2189 1850 50  0000 C CNN
F 2 "" H 2388 1700 50  0001 C CNN
F 3 "~" H 2350 1850 50  0001 C CNN
	1    2350 1850
	0    1    1    0   
$EndComp
$Comp
L Device:R R5
U 1 1 5B7E9D08
P 2750 2250
F 0 "R5" V 2543 2250 50  0000 C CNN
F 1 "1M" V 2634 2250 50  0000 C CNN
F 2 "" V 2680 2250 50  0001 C CNN
F 3 "~" H 2750 2250 50  0001 C CNN
	1    2750 2250
	0    1    1    0   
$EndComp
$Comp
L Device:C C5
U 1 1 5B7E9D0F
P 2750 1850
F 0 "C5" V 2498 1850 50  0000 C CNN
F 1 "10p" V 2589 1850 50  0000 C CNN
F 2 "" H 2788 1700 50  0001 C CNN
F 3 "~" H 2750 1850 50  0001 C CNN
	1    2750 1850
	0    1    1    0   
$EndComp
$Comp
L Device:R R7
U 1 1 5B7E9D48
P 3150 2250
F 0 "R7" V 2943 2250 50  0000 C CNN
F 1 "1M" V 3034 2250 50  0000 C CNN
F 2 "" V 3080 2250 50  0001 C CNN
F 3 "~" H 3150 2250 50  0001 C CNN
	1    3150 2250
	0    1    1    0   
$EndComp
$Comp
L Device:C C7
U 1 1 5B7E9D4F
P 3150 1850
F 0 "C7" V 2898 1850 50  0000 C CNN
F 1 "10p" V 2989 1850 50  0000 C CNN
F 2 "" H 3188 1700 50  0001 C CNN
F 3 "~" H 3150 1850 50  0001 C CNN
	1    3150 1850
	0    1    1    0   
$EndComp
$Comp
L Device:R R9
U 1 1 5B7E9D80
P 3550 2250
F 0 "R9" V 3343 2250 50  0000 C CNN
F 1 "1M" V 3434 2250 50  0000 C CNN
F 2 "" V 3480 2250 50  0001 C CNN
F 3 "~" H 3550 2250 50  0001 C CNN
	1    3550 2250
	0    1    1    0   
$EndComp
$Comp
L Device:C C9
U 1 1 5B7E9D87
P 3550 1850
F 0 "C9" V 3298 1850 50  0000 C CNN
F 1 "10p" V 3389 1850 50  0000 C CNN
F 2 "" H 3588 1700 50  0001 C CNN
F 3 "~" H 3550 1850 50  0001 C CNN
	1    3550 1850
	0    1    1    0   
$EndComp
Wire Wire Line
	1800 1850 1700 1850
Wire Wire Line
	1700 1850 1700 2250
Wire Wire Line
	1700 2250 1650 2250
Wire Wire Line
	1700 2250 1800 2250
Connection ~ 1700 2250
Wire Wire Line
	2100 1850 2150 1850
Wire Wire Line
	2100 2250 2150 2250
Wire Wire Line
	2150 2250 2150 1850
Connection ~ 2150 2250
Wire Wire Line
	2150 2250 2200 2250
Connection ~ 2150 1850
Wire Wire Line
	2150 1850 2200 1850
Wire Wire Line
	2500 1850 2550 1850
Wire Wire Line
	2500 2250 2550 2250
Wire Wire Line
	2550 2250 2550 1850
Connection ~ 2550 2250
Wire Wire Line
	2550 2250 2600 2250
Connection ~ 2550 1850
Wire Wire Line
	2550 1850 2600 1850
Wire Wire Line
	2900 1850 2950 1850
Wire Wire Line
	2900 2250 2950 2250
Wire Wire Line
	2950 2250 2950 1850
Connection ~ 2950 2250
Wire Wire Line
	2950 2250 3000 2250
Connection ~ 2950 1850
Wire Wire Line
	2950 1850 3000 1850
Wire Wire Line
	3300 1850 3350 1850
Wire Wire Line
	3300 2250 3350 2250
Wire Wire Line
	3350 1850 3350 2250
Connection ~ 3350 1850
Wire Wire Line
	3350 1850 3400 1850
Connection ~ 3350 2250
Wire Wire Line
	3350 2250 3400 2250
Wire Wire Line
	3700 1850 3750 1850
Wire Wire Line
	3750 1850 3750 2250
Wire Wire Line
	3750 2250 3700 2250
$Comp
L Device:R R11
U 1 1 5B7EAD75
P 3850 2500
F 0 "R11" H 3920 2546 50  0000 L CNN
F 1 "10k" H 3920 2455 50  0000 L CNN
F 2 "" V 3780 2500 50  0001 C CNN
F 3 "~" H 3850 2500 50  0001 C CNN
	1    3850 2500
	1    0    0    -1  
$EndComp
Wire Wire Line
	3850 2350 3850 2250
Wire Wire Line
	3850 2250 3750 2250
Connection ~ 3750 2250
$Comp
L power:GND #PWR01
U 1 1 5B7EB13C
P 3850 2650
F 0 "#PWR01" H 3850 2400 50  0001 C CNN
F 1 "GND" H 3855 2477 50  0000 C CNN
F 2 "" H 3850 2650 50  0001 C CNN
F 3 "" H 3850 2650 50  0001 C CNN
	1    3850 2650
	1    0    0    -1  
$EndComp
$Comp
L Device:C C11
U 1 1 5B7EB54F
P 4200 2500
F 0 "C11" H 4085 2454 50  0000 R CNN
F 1 "DNP" H 4085 2545 50  0000 R CNN
F 2 "" H 4238 2350 50  0001 C CNN
F 3 "~" H 4200 2500 50  0001 C CNN
	1    4200 2500
	-1   0    0    1   
$EndComp
$Comp
L Device:C C13
U 1 1 5B7EB64C
P 4600 2500
F 0 "C13" H 4485 2454 50  0000 R CNN
F 1 "910p" H 4485 2545 50  0000 R CNN
F 2 "" H 4638 2350 50  0001 C CNN
F 3 "~" H 4600 2500 50  0001 C CNN
	1    4600 2500
	-1   0    0    1   
$EndComp
Wire Wire Line
	4600 2350 4600 2250
Wire Wire Line
	4600 2250 4200 2250
Connection ~ 3850 2250
Wire Wire Line
	4200 2350 4200 2250
Connection ~ 4200 2250
Wire Wire Line
	4200 2250 3850 2250
$Comp
L power:GND #PWR03
U 1 1 5B7EBDEE
P 4200 2650
F 0 "#PWR03" H 4200 2400 50  0001 C CNN
F 1 "GND" H 4205 2477 50  0000 C CNN
F 2 "" H 4200 2650 50  0001 C CNN
F 3 "" H 4200 2650 50  0001 C CNN
	1    4200 2650
	1    0    0    -1  
$EndComp
$Comp
L power:GND #PWR05
U 1 1 5B7EBE57
P 4600 2650
F 0 "#PWR05" H 4600 2400 50  0001 C CNN
F 1 "GND" H 4605 2477 50  0000 C CNN
F 2 "" H 4600 2650 50  0001 C CNN
F 3 "" H 4600 2650 50  0001 C CNN
	1    4600 2650
	1    0    0    -1  
$EndComp
$Comp
L Device:C_Variable C15
U 1 1 5B7EBF52
P 5050 2500
F 0 "C15" H 5165 2546 50  0000 L CNN
F 1 "8-80p" H 5165 2455 50  0000 L CNN
F 2 "" H 5050 2500 50  0001 C CNN
F 3 "~" H 5050 2500 50  0001 C CNN
	1    5050 2500
	1    0    0    -1  
$EndComp
Wire Wire Line
	5050 2350 5050 2250
Wire Wire Line
	5050 2250 4600 2250
Connection ~ 4600 2250
$Comp
L power:GND #PWR07
U 1 1 5B7EC3C6
P 5050 2650
F 0 "#PWR07" H 5050 2400 50  0001 C CNN
F 1 "GND" H 5055 2477 50  0000 C CNN
F 2 "" H 5050 2650 50  0001 C CNN
F 3 "" H 5050 2650 50  0001 C CNN
	1    5050 2650
	1    0    0    -1  
$EndComp
$Comp
L Connector:Conn_01x01_Female J2
U 1 1 5B7EC93D
P 1450 3750
F 0 "J2" H 1344 3525 50  0000 C CNN
F 1 "IN2" H 1344 3616 50  0000 C CNN
F 2 "" H 1450 3750 50  0001 C CNN
F 3 "~" H 1450 3750 50  0001 C CNN
	1    1450 3750
	-1   0    0    1   
$EndComp
$Comp
L Device:R R2
U 1 1 5B7EC944
P 1950 3750
F 0 "R2" V 1743 3750 50  0000 C CNN
F 1 "1M" V 1834 3750 50  0000 C CNN
F 2 "" V 1880 3750 50  0001 C CNN
F 3 "~" H 1950 3750 50  0001 C CNN
	1    1950 3750
	0    1    1    0   
$EndComp
$Comp
L Device:C C2
U 1 1 5B7EC94B
P 1950 3350
F 0 "C2" V 1698 3350 50  0000 C CNN
F 1 "10p" V 1789 3350 50  0000 C CNN
F 2 "" H 1988 3200 50  0001 C CNN
F 3 "~" H 1950 3350 50  0001 C CNN
	1    1950 3350
	0    1    1    0   
$EndComp
$Comp
L Device:R R4
U 1 1 5B7EC952
P 2350 3750
F 0 "R4" V 2143 3750 50  0000 C CNN
F 1 "1M" V 2234 3750 50  0000 C CNN
F 2 "" V 2280 3750 50  0001 C CNN
F 3 "~" H 2350 3750 50  0001 C CNN
	1    2350 3750
	0    1    1    0   
$EndComp
$Comp
L Device:C C4
U 1 1 5B7EC959
P 2350 3350
F 0 "C4" V 2098 3350 50  0000 C CNN
F 1 "10p" V 2189 3350 50  0000 C CNN
F 2 "" H 2388 3200 50  0001 C CNN
F 3 "~" H 2350 3350 50  0001 C CNN
	1    2350 3350
	0    1    1    0   
$EndComp
$Comp
L Device:R R6
U 1 1 5B7EC960
P 2750 3750
F 0 "R6" V 2543 3750 50  0000 C CNN
F 1 "1M" V 2634 3750 50  0000 C CNN
F 2 "" V 2680 3750 50  0001 C CNN
F 3 "~" H 2750 3750 50  0001 C CNN
	1    2750 3750
	0    1    1    0   
$EndComp
$Comp
L Device:C C6
U 1 1 5B7EC967
P 2750 3350
F 0 "C6" V 2498 3350 50  0000 C CNN
F 1 "10p" V 2589 3350 50  0000 C CNN
F 2 "" H 2788 3200 50  0001 C CNN
F 3 "~" H 2750 3350 50  0001 C CNN
	1    2750 3350
	0    1    1    0   
$EndComp
$Comp
L Device:R R8
U 1 1 5B7EC96E
P 3150 3750
F 0 "R8" V 2943 3750 50  0000 C CNN
F 1 "1M" V 3034 3750 50  0000 C CNN
F 2 "" V 3080 3750 50  0001 C CNN
F 3 "~" H 3150 3750 50  0001 C CNN
	1    3150 3750
	0    1    1    0   
$EndComp
$Comp
L Device:C C8
U 1 1 5B7EC975
P 3150 3350
F 0 "C8" V 2898 3350 50  0000 C CNN
F 1 "10p" V 2989 3350 50  0000 C CNN
F 2 "" H 3188 3200 50  0001 C CNN
F 3 "~" H 3150 3350 50  0001 C CNN
	1    3150 3350
	0    1    1    0   
$EndComp
$Comp
L Device:R R10
U 1 1 5B7EC97C
P 3550 3750
F 0 "R10" V 3343 3750 50  0000 C CNN
F 1 "1M" V 3434 3750 50  0000 C CNN
F 2 "" V 3480 3750 50  0001 C CNN
F 3 "~" H 3550 3750 50  0001 C CNN
	1    3550 3750
	0    1    1    0   
$EndComp
$Comp
L Device:C C10
U 1 1 5B7EC983
P 3550 3350
F 0 "C10" V 3298 3350 50  0000 C CNN
F 1 "10p" V 3389 3350 50  0000 C CNN
F 2 "" H 3588 3200 50  0001 C CNN
F 3 "~" H 3550 3350 50  0001 C CNN
	1    3550 3350
	0    1    1    0   
$EndComp
Wire Wire Line
	1800 3350 1700 3350
Wire Wire Line
	1700 3350 1700 3750
Wire Wire Line
	1700 3750 1650 3750
Wire Wire Line
	1700 3750 1800 3750
Connection ~ 1700 3750
Wire Wire Line
	2100 3350 2150 3350
Wire Wire Line
	2100 3750 2150 3750
Wire Wire Line
	2150 3750 2150 3350
Connection ~ 2150 3750
Wire Wire Line
	2150 3750 2200 3750
Connection ~ 2150 3350
Wire Wire Line
	2150 3350 2200 3350
Wire Wire Line
	2500 3350 2550 3350
Wire Wire Line
	2500 3750 2550 3750
Wire Wire Line
	2550 3750 2550 3350
Connection ~ 2550 3750
Wire Wire Line
	2550 3750 2600 3750
Connection ~ 2550 3350
Wire Wire Line
	2550 3350 2600 3350
Wire Wire Line
	2900 3350 2950 3350
Wire Wire Line
	2900 3750 2950 3750
Wire Wire Line
	2950 3750 2950 3350
Connection ~ 2950 3750
Wire Wire Line
	2950 3750 3000 3750
Connection ~ 2950 3350
Wire Wire Line
	2950 3350 3000 3350
Wire Wire Line
	3300 3350 3350 3350
Wire Wire Line
	3300 3750 3350 3750
Wire Wire Line
	3350 3350 3350 3750
Connection ~ 3350 3350
Wire Wire Line
	3350 3350 3400 3350
Connection ~ 3350 3750
Wire Wire Line
	3350 3750 3400 3750
Wire Wire Line
	3700 3350 3750 3350
Wire Wire Line
	3750 3350 3750 3750
Wire Wire Line
	3750 3750 3700 3750
$Comp
L Device:R R12
U 1 1 5B7EC9AE
P 3850 4000
F 0 "R12" H 3920 4046 50  0000 L CNN
F 1 "10k" H 3920 3955 50  0000 L CNN
F 2 "" V 3780 4000 50  0001 C CNN
F 3 "~" H 3850 4000 50  0001 C CNN
	1    3850 4000
	1    0    0    -1  
$EndComp
Wire Wire Line
	3850 3850 3850 3750
Wire Wire Line
	3850 3750 3750 3750
Connection ~ 3750 3750
$Comp
L power:GND #PWR02
U 1 1 5B7EC9B8
P 3850 4150
F 0 "#PWR02" H 3850 3900 50  0001 C CNN
F 1 "GND" H 3855 3977 50  0000 C CNN
F 2 "" H 3850 4150 50  0001 C CNN
F 3 "" H 3850 4150 50  0001 C CNN
	1    3850 4150
	1    0    0    -1  
$EndComp
$Comp
L Device:C C12
U 1 1 5B7EC9BE
P 4200 4000
F 0 "C12" H 4085 3954 50  0000 R CNN
F 1 "DNP" H 4085 4045 50  0000 R CNN
F 2 "" H 4238 3850 50  0001 C CNN
F 3 "~" H 4200 4000 50  0001 C CNN
	1    4200 4000
	-1   0    0    1   
$EndComp
$Comp
L Device:C C14
U 1 1 5B7EC9C5
P 4600 4000
F 0 "C14" H 4485 3954 50  0000 R CNN
F 1 "910p" H 4485 4045 50  0000 R CNN
F 2 "" H 4638 3850 50  0001 C CNN
F 3 "~" H 4600 4000 50  0001 C CNN
	1    4600 4000
	-1   0    0    1   
$EndComp
Wire Wire Line
	4600 3850 4600 3750
Wire Wire Line
	4600 3750 4200 3750
Connection ~ 3850 3750
Wire Wire Line
	4200 3850 4200 3750
Connection ~ 4200 3750
Wire Wire Line
	4200 3750 3850 3750
$Comp
L power:GND #PWR04
U 1 1 5B7EC9D2
P 4200 4150
F 0 "#PWR04" H 4200 3900 50  0001 C CNN
F 1 "GND" H 4205 3977 50  0000 C CNN
F 2 "" H 4200 4150 50  0001 C CNN
F 3 "" H 4200 4150 50  0001 C CNN
	1    4200 4150
	1    0    0    -1  
$EndComp
$Comp
L power:GND #PWR06
U 1 1 5B7EC9D8
P 4600 4150
F 0 "#PWR06" H 4600 3900 50  0001 C CNN
F 1 "GND" H 4605 3977 50  0000 C CNN
F 2 "" H 4600 4150 50  0001 C CNN
F 3 "" H 4600 4150 50  0001 C CNN
	1    4600 4150
	1    0    0    -1  
$EndComp
$Comp
L Device:C_Variable C16
U 1 1 5B7EC9DE
P 5050 4000
F 0 "C16" H 5165 4046 50  0000 L CNN
F 1 "8-80p" H 5165 3955 50  0000 L CNN
F 2 "" H 5050 4000 50  0001 C CNN
F 3 "~" H 5050 4000 50  0001 C CNN
	1    5050 4000
	1    0    0    -1  
$EndComp
Wire Wire Line
	5050 3850 5050 3750
Wire Wire Line
	5050 3750 4600 3750
Connection ~ 4600 3750
$Comp
L power:GND #PWR08
U 1 1 5B7EC9E8
P 5050 4150
F 0 "#PWR08" H 5050 3900 50  0001 C CNN
F 1 "GND" H 5055 3977 50  0000 C CNN
F 2 "" H 5050 4150 50  0001 C CNN
F 3 "" H 5050 4150 50  0001 C CNN
	1    5050 4150
	1    0    0    -1  
$EndComp
$Comp
L Amplifier_Operational:AD8620 U1
U 1 1 5B7EE2C3
P 5900 2150
F 0 "U1" H 5900 1783 50  0000 C CNN
F 1 "LT1819" H 5900 1874 50  0000 C CNN
F 2 "" H 5900 2150 50  0001 C CNN
F 3 "http://www.analog.com/media/en/technical-documentation/data-sheets/AD8610_8620.pdf" H 5900 2150 50  0001 C CNN
	1    5900 2150
	1    0    0    1   
$EndComp
$Comp
L Amplifier_Operational:AD8620 U1
U 2 1 5B7EE3A7
P 5900 3650
F 0 "U1" H 5900 3283 50  0000 C CNN
F 1 "LT1819" H 5900 3374 50  0000 C CNN
F 2 "" H 5900 3650 50  0001 C CNN
F 3 "http://www.analog.com/media/en/technical-documentation/data-sheets/AD8610_8620.pdf" H 5900 3650 50  0001 C CNN
	2    5900 3650
	1    0    0    1   
$EndComp
$Comp
L Amplifier_Operational:AD8620 U1
U 3 1 5B7EE4A0
P 1150 5500
F 0 "U1" H 1108 5546 50  0000 L CNN
F 1 "LT1819" H 1108 5455 50  0000 L CNN
F 2 "" H 1150 5500 50  0001 C CNN
F 3 "http://www.analog.com/media/en/technical-documentation/data-sheets/AD8610_8620.pdf" H 1150 5500 50  0001 C CNN
	3    1150 5500
	1    0    0    -1  
$EndComp
Wire Wire Line
	5600 2250 5050 2250
Connection ~ 5050 2250
Wire Wire Line
	5600 3750 5050 3750
Connection ~ 5050 3750
$Comp
L Device:R R13
U 1 1 5B7F6554
P 6350 2400
F 0 "R13" H 6420 2446 50  0000 L CNN
F 1 "300" H 6420 2355 50  0000 L CNN
F 2 "" V 6280 2400 50  0001 C CNN
F 3 "~" H 6350 2400 50  0001 C CNN
	1    6350 2400
	1    0    0    -1  
$EndComp
$Comp
L Device:R R14
U 1 1 5B7F66A6
P 6350 2800
F 0 "R14" H 6420 2846 50  0000 L CNN
F 1 "600" H 6420 2755 50  0000 L CNN
F 2 "" V 6280 2800 50  0001 C CNN
F 3 "~" H 6350 2800 50  0001 C CNN
	1    6350 2800
	1    0    0    -1  
$EndComp
$Comp
L Device:R R15
U 1 1 5B7F67D7
P 6350 3200
F 0 "R15" H 6420 3246 50  0000 L CNN
F 1 "300" H 6420 3155 50  0000 L CNN
F 2 "" V 6280 3200 50  0001 C CNN
F 3 "~" H 6350 3200 50  0001 C CNN
	1    6350 3200
	1    0    0    -1  
$EndComp
Wire Wire Line
	6350 3350 6350 3650
Wire Wire Line
	6350 3650 6200 3650
Wire Wire Line
	6350 3050 6350 3000
Wire Wire Line
	6350 3000 5500 3000
Wire Wire Line
	5500 3000 5500 3550
Wire Wire Line
	5500 3550 5600 3550
Connection ~ 6350 3000
Wire Wire Line
	6350 3000 6350 2950
Wire Wire Line
	6350 2650 6350 2600
Wire Wire Line
	6350 2600 5500 2600
Wire Wire Line
	5500 2600 5500 2050
Wire Wire Line
	5500 2050 5600 2050
Connection ~ 6350 2600
Wire Wire Line
	6350 2600 6350 2550
Wire Wire Line
	6200 2150 6350 2150
Wire Wire Line
	6350 2150 6350 2250
$Comp
L Device:C C17
U 1 1 5B7FFDF2
P 6750 2400
F 0 "C17" H 6635 2354 50  0000 R CNN
F 1 "5p" H 6635 2445 50  0000 R CNN
F 2 "" H 6788 2250 50  0001 C CNN
F 3 "~" H 6750 2400 50  0001 C CNN
	1    6750 2400
	-1   0    0    1   
$EndComp
$Comp
L Device:C C18
U 1 1 5B7FFED2
P 6750 3200
F 0 "C18" H 6635 3154 50  0000 R CNN
F 1 "5p" H 6635 3245 50  0000 R CNN
F 2 "" H 6788 3050 50  0001 C CNN
F 3 "~" H 6750 3200 50  0001 C CNN
	1    6750 3200
	-1   0    0    1   
$EndComp
Wire Wire Line
	6750 2550 6750 2600
Wire Wire Line
	6750 2600 6350 2600
Wire Wire Line
	6350 2150 6750 2150
Wire Wire Line
	6750 2150 6750 2250
Connection ~ 6350 2150
Wire Wire Line
	6350 3000 6750 3000
Wire Wire Line
	6750 3000 6750 3050
Wire Wire Line
	6750 3350 6750 3650
Wire Wire Line
	6750 3650 6350 3650
Connection ~ 6350 3650
$Comp
L Device:R R16
U 1 1 5B807BDB
P 7150 2150
F 0 "R16" V 6943 2150 50  0000 C CNN
F 1 "300" V 7034 2150 50  0000 C CNN
F 2 "" V 7080 2150 50  0001 C CNN
F 3 "~" H 7150 2150 50  0001 C CNN
	1    7150 2150
	0    1    1    0   
$EndComp
$Comp
L Device:R R17
U 1 1 5B807C85
P 7150 3650
F 0 "R17" V 6943 3650 50  0000 C CNN
F 1 "300" V 7034 3650 50  0000 C CNN
F 2 "" V 7080 3650 50  0001 C CNN
F 3 "~" H 7150 3650 50  0001 C CNN
	1    7150 3650
	0    1    1    0   
$EndComp
Wire Wire Line
	7000 3650 6750 3650
Connection ~ 6750 3650
Wire Wire Line
	7000 2150 6750 2150
Connection ~ 6750 2150
$Comp
L Amplifier_Operational:AD8620 U2
U 1 1 5B80C33B
P 7750 2800
F 0 "U2" H 7750 2433 50  0000 C CNN
F 1 "LT1819" H 7750 2524 50  0000 C CNN
F 2 "" H 7750 2800 50  0001 C CNN
F 3 "http://www.analog.com/media/en/technical-documentation/data-sheets/AD8610_8620.pdf" H 7750 2800 50  0001 C CNN
	1    7750 2800
	1    0    0    1   
$EndComp
$Comp
L Amplifier_Operational:AD8620 U2
U 2 1 5B80C767
P 8250 5700
F 0 "U2" H 8250 5333 50  0000 C CNN
F 1 "LT1819" H 8250 5424 50  0000 C CNN
F 2 "" H 8250 5700 50  0001 C CNN
F 3 "http://www.analog.com/media/en/technical-documentation/data-sheets/AD8610_8620.pdf" H 8250 5700 50  0001 C CNN
	2    8250 5700
	1    0    0    1   
$EndComp
$Comp
L Amplifier_Operational:AD8620 U2
U 3 1 5B80CD7D
P 1600 5500
F 0 "U2" H 1558 5546 50  0000 L CNN
F 1 "LT1819" H 1558 5455 50  0000 L CNN
F 2 "" H 1600 5500 50  0001 C CNN
F 3 "http://www.analog.com/media/en/technical-documentation/data-sheets/AD8610_8620.pdf" H 1600 5500 50  0001 C CNN
	3    1600 5500
	1    0    0    -1  
$EndComp
Wire Wire Line
	7450 2700 7400 2700
Wire Wire Line
	7400 2700 7400 2150
Wire Wire Line
	7400 2150 7300 2150
Wire Wire Line
	7450 2900 7400 2900
Wire Wire Line
	7400 2900 7400 3650
Wire Wire Line
	7400 3650 7300 3650
$Comp
L Device:R R18
U 1 1 5B8120E2
P 7400 3950
F 0 "R18" H 7330 3904 50  0000 R CNN
F 1 "300" H 7330 3995 50  0000 R CNN
F 2 "" V 7330 3950 50  0001 C CNN
F 3 "~" H 7400 3950 50  0001 C CNN
	1    7400 3950
	-1   0    0    1   
$EndComp
$Comp
L power:GND #PWR09
U 1 1 5B81218D
P 7400 4100
F 0 "#PWR09" H 7400 3850 50  0001 C CNN
F 1 "GND" H 7405 3927 50  0000 C CNN
F 2 "" H 7400 4100 50  0001 C CNN
F 3 "" H 7400 4100 50  0001 C CNN
	1    7400 4100
	1    0    0    -1  
$EndComp
Wire Wire Line
	7400 3800 7400 3650
Connection ~ 7400 3650
$Comp
L Device:C C20
U 1 1 5B8147D8
P 7750 3950
F 0 "C20" H 7635 3904 50  0000 R CNN
F 1 "5p" H 7635 3995 50  0000 R CNN
F 2 "" H 7788 3800 50  0001 C CNN
F 3 "~" H 7750 3950 50  0001 C CNN
	1    7750 3950
	-1   0    0    1   
$EndComp
Wire Wire Line
	7750 3800 7750 3650
Wire Wire Line
	7750 3650 7400 3650
$Comp
L power:GND #PWR010
U 1 1 5B816F8F
P 7750 4100
F 0 "#PWR010" H 7750 3850 50  0001 C CNN
F 1 "GND" H 7755 3927 50  0000 C CNN
F 2 "" H 7750 4100 50  0001 C CNN
F 3 "" H 7750 4100 50  0001 C CNN
	1    7750 4100
	1    0    0    -1  
$EndComp
$Comp
L Device:C C19
U 1 1 5B816FF4
P 7750 2150
F 0 "C19" V 8002 2150 50  0000 C CNN
F 1 "5p" V 7911 2150 50  0000 C CNN
F 2 "" H 7788 2000 50  0001 C CNN
F 3 "~" H 7750 2150 50  0001 C CNN
	1    7750 2150
	0    -1   -1   0   
$EndComp
$Comp
L Device:R R19
U 1 1 5B8171EB
P 7750 1800
F 0 "R19" V 7543 1800 50  0000 C CNN
F 1 "300" V 7634 1800 50  0000 C CNN
F 2 "" V 7680 1800 50  0001 C CNN
F 3 "~" H 7750 1800 50  0001 C CNN
	1    7750 1800
	0    1    1    0   
$EndComp
Wire Wire Line
	7600 1800 7400 1800
Wire Wire Line
	7400 1800 7400 2150
Connection ~ 7400 2150
Wire Wire Line
	7600 2150 7400 2150
Wire Wire Line
	7900 1800 8150 1800
Wire Wire Line
	8150 1800 8150 2150
Wire Wire Line
	8150 2800 8050 2800
Wire Wire Line
	7900 2150 8150 2150
Connection ~ 8150 2150
Wire Wire Line
	8150 2150 8150 2800
$Comp
L Device:R R20
U 1 1 5B821C8B
P 8400 2800
F 0 "R20" V 8193 2800 50  0000 C CNN
F 1 "50/1W" V 8284 2800 50  0000 C CNN
F 2 "" V 8330 2800 50  0001 C CNN
F 3 "~" H 8400 2800 50  0001 C CNN
	1    8400 2800
	0    1    1    0   
$EndComp
Wire Wire Line
	8250 2800 8150 2800
Connection ~ 8150 2800
$Comp
L Connector:Conn_01x02_Male J3
U 1 1 5B824CBB
P 8850 2900
F 0 "J3" H 8822 2780 50  0000 R CNN
F 1 "OUT" H 8822 2871 50  0000 R CNN
F 2 "" H 8850 2900 50  0001 C CNN
F 3 "~" H 8850 2900 50  0001 C CNN
	1    8850 2900
	-1   0    0    1   
$EndComp
Wire Wire Line
	8650 2800 8550 2800
$Comp
L power:GND #PWR011
U 1 1 5B827E3B
P 8600 3050
F 0 "#PWR011" H 8600 2800 50  0001 C CNN
F 1 "GND" H 8605 2877 50  0000 C CNN
F 2 "" H 8600 3050 50  0001 C CNN
F 3 "" H 8600 3050 50  0001 C CNN
	1    8600 3050
	1    0    0    -1  
$EndComp
Wire Wire Line
	8600 3050 8600 2900
Wire Wire Line
	8600 2900 8650 2900
$EndSCHEMATC
